{
    "context_comment": "Additionally to the default location and moment other features may be activated (beta)",
    "context": {
        "activity": {
            "enabled": true
        }
    },
    "metric_comment": "Use scikit-learn metrics package function name (e.g., matthews_corrcoef, f1_score)",
    "metric": {
        "f1_score": {
            "enabled": true,
            "kwargs": {"average": "weighted"}
        },
        "matthews_corrcoef": {
            "enabled": false,
            "kwargs": {}
        }
    },
    "algorithms_comment": "Custom short names and parameters. ...search: {...} is for scikit-optimize BayesSearchCV.",
    "algorithms": {
        "dummy": {
            "enabled": true,
            "search": {
                "strategy": ["stratified"]
            },
            "search_n_iter": 1,
            "split_n_class_min": 1,
            "early_stop": false
        },
        "lr": {
            "enabled": true,
            "search": {
                "penalty": ["l1", "l2"],
                "C": [0.1, 10.0, "log-uniform"],
                "max_iter": [10000]
            },
            "search_n_iter": null,
            "split_n_class_min": 2,
            "early_stop": false
        },
        "xgboost": {
            "enabled": true,
            "search": {
                "max_depth": [1, 5],
                "learning_rate": [0.00001, 1, "log-uniform"],
                "gamma": [0.000001, 10, "log-uniform"],
                "max_delta_step": [0, 1]
            },
            "search_n_iter": null,
            "split_n_class_min": 2,
            "early_stop": true
        },
        "nn": {
            "enabled": false,
            "search": {
                "units": [100, 200, 300, 400, 500],
                "dropout_rate": [0.1, 0.5],
                "batch_size": [16, 128],
                "epochs": [100],
                "verbose": [0]
            },
            "search_n_iter": null,
            "split_n_class_min": 1,
            "early_stop": true
        }
    }
}
